%YAML 1.1
%TAG !u! tag:unity3d.com,2011:
--- !u!114 &11400000
MonoBehaviour:
  m_ObjectHideFlags: 0
  m_CorrespondingSourceObject: {fileID: 0}
  m_PrefabInstance: {fileID: 0}
  m_PrefabAsset: {fileID: 0}
  m_GameObject: {fileID: 0}
  m_Enabled: 1
  m_EditorHideFlags: 0
  m_Script: {fileID: 11500000, guid: 54d21f6ece3b46479f0c328f8c6007e0, type: 3}
  m_Name: Gradient Menu Options
  m_EditorClassIdentifier: 
  colorMode: 3
  topLeft: {r: 0.9450981, g: 0.35686275, b: 0.2901961, a: 1}
  topRight: {r: 0.9490197, g: 0.35686275, b: 0.29411766, a: 1}
  bottomLeft: {r: 0.7411765, g: 0.18431373, b: 0.16078432, a: 1}
  bottomRight: {r: 0.7960785, g: 0.16078432, b: 0.14509805, a: 1}
